index,formation,macrogroup,macrogroupValue,sumGrpName,newSumGrpValue,system,code,excluded,forested
1,Alpine,Alpine,2001,Acadian-Appalachian Alpine Tundra,5000,Acadian-Appalachian Alpine Tundra,567,FALSE,FALSE
2,Cliff & Talus,Cliff & Talus,2000,Acidic Cliff and Talus,8000,Central Interior Acidic Cliff and Talus,689,FALSE,FALSE
3,Cliff & Talus,Cliff & Talus,2000,Calcareous Cliff and Talus,21000,Central Interior Calcareous Cliff and Talus,690,FALSE,FALSE
4,Cliff & Talus,Cliff & Talus,2000,Acidic Cliff and Talus,8000,Cumberland Acidic Cliff and Rockhouse,309,FALSE,FALSE
5,Cliff & Talus,Cliff & Talus,2000,Acidic Cliff and Talus,8000,Laurentian-Acadian Acidic Cliff and Talus,569,FALSE,FALSE
6,Cliff & Talus,Cliff & Talus,2000,Calcareous Cliff and Talus,21000,Laurentian-Acadian Calcareous Cliff and Talus,570,FALSE,FALSE
7,Cliff & Talus,Cliff & Talus,2000,Acidic Cliff and Talus,8000,North-Central Appalachian Acidic Cliff and Talus,601,FALSE,FALSE
8,Cliff & Talus,Cliff & Talus,2000,Circumneutral Cliff and Talus,31000,North-Central Appalachian Circumneutral Cliff and Talus,603,FALSE,FALSE
9,Cliff & Talus,Cliff & Talus,2000,Acidic Cliff and Talus,8000,Southern Appalachian Montane Cliff and Talus,330,FALSE,FALSE
10,Cliff & Talus,Cliff & Talus,2000,Calcareous Cliff and Talus,21000,Southern Interior Calcareous Cliff,356,FALSE,FALSE
11,Grassland & Shrubland,Glade & Barren & Savanna,2002,Central Appalachian Alkaline Glade and Woodland,23000,Central Appalachian Alkaline Glade and Woodland,602,FALSE,FALSE
12,Grassland & Shrubland,Glade & Barren & Savanna,2002,Great Lakes Alvar,36000,Great Lakes Alvar,721,FALSE,FALSE
13,Grassland & Shrubland,Glade & Barren & Savanna,2002,Southern and Central Appalachian Mafic Glade and Barrens,97000,Southern and Central Appalachian Mafic Glade and Barrens,348,FALSE,FALSE
14,Grassland & Shrubland,Glade & Barren & Savanna,2002,Southern Piedmont Glade and Barrens,89000,Southern Piedmont Glade and Barrens,328,FALSE,FALSE
15,Grassland & Shrubland,Glade & Barren & Savanna,2002,Southern Ridge and Valley Calcareous Glade and Woodland,95000,Southern Ridge and Valley Calcareous Glade and Woodland,25,FALSE,FALSE
16,Grassland & Shrubland,Outcrop & Summit Scrub,2003,Acidic Rocky Outcrop,9000,Laurentian Acidic Rocky Outcrop,19,FALSE,FALSE
17,Grassland & Shrubland,Outcrop & Summit Scrub,2003,Calcareous Rocky Outcrop,22000,Laurentian-Acadian Calcareous Rocky Outcrop,572,FALSE,FALSE
18,Grassland & Shrubland,Outcrop & Summit Scrub,2003,Acidic Rocky Outcrop,9000,Northern Appalachian-Acadian Rocky Heath Outcrop,571,FALSE,FALSE
19,Grassland & Shrubland,Outcrop & Summit Scrub,2003,Southern Appalachian Grass and Shrub Bald,98000,Southern Appalachian Grass and Shrub Bald,294,FALSE,FALSE
20,Grassland & Shrubland,Outcrop & Summit Scrub,2003,Southern Piedmont Granite Flatrock and Outcrop,90000,Southern Piedmont Granite Flatrock and Outcrop,329,FALSE,FALSE
21,Grassland & Shrubland,Ruderal Shrubland & Grassland,5271,Shrubland & grassland (NLCD 52/71),78000,NLCD 52/71: shrublands/grasslands,5271,FALSE,FALSE
22,Coastal Grassland & Shrubland,Coastal Grassland & Shrubland,2005,Great Lakes Dune and Swale,37000,Great Lakes Dune,26,FALSE,FALSE
23,Coastal Grassland & Shrubland,Coastal Grassland & Shrubland,2005,Great Lakes Dune and Swale,37000,Great Lakes Dune and Swale,726,FALSE,FALSE
24,Coastal Grassland & Shrubland,Coastal Grassland & Shrubland,2005,North Atlantic Coastal Plain Heathland and Grassland,51000,North Atlantic Coastal Plain Heathland and Grassland,895,FALSE,FALSE
25,Coastal Grassland & Shrubland,Coastal Grassland & Shrubland,2005,Atlantic Coastal Plain Beach and Dune,14000,Northern Atlantic Coastal Plain Dune and Swale/Central Atlantic Coastal Plain Sandy Beach,264064,FALSE,FALSE
26,Coastal Grassland & Shrubland,Coastal Grassland & Shrubland,2005,Atlantic Coastal Plain Beach and Dune,14000,Northern Atlantic Coastal Plain Dune and Swale/Sandy Beach,264,FALSE,FALSE
27,Boreal Upland Forest,Boreal Upland Forest,2006,Acadian Low Elevation Spruce-Fir-Hardwood Forest,2050,Acadian Low Elevation Spruce-Fir-Hardwood Forest,5650,FALSE,TRUE
28,Boreal Upland Forest,Boreal Upland Forest,2006,Acadian Sub-boreal Spruce Flat,4000,Acadian Sub-boreal Spruce Flat,562,FALSE,TRUE
29,Boreal Upland Forest,Boreal Upland Forest,2006,Acadian-Appalachian Montane Spruce-Fir-Hardwood Forest,6000,Acadian-Appalachian Montane Spr-Fir-Hwd Forest,566,FALSE,TRUE
30,Boreal Upland Forest,Boreal Upland Forest,2006,Central and Southern Appalachian Spruce-Fir Forest,30000,Central and Southern Appalachian Spruce-Fir Forest,28,FALSE,TRUE
31,Northeastern Upland Forest,Central Oak-Pine,2008,Allegheny-Cumberland Dry Oak Forest and Woodland,11000,Allegheny-Cumberland Dry Oak Forest and Woodland,359,FALSE,TRUE
32,Northeastern Upland Forest,Central Oak-Pine,2008,Appalachian Shale Barrens,13000,Appalachian Shale Barrens,598,FALSE,TRUE
33,Northeastern Upland Forest,Central Oak-Pine,2008,Central and Southern Appalachian Montane Oak Forest,29000,Central and Southern Appalachian Montane Oak Forest,596,FALSE,TRUE
34,Northeastern Upland Forest,Central Oak-Pine,2008,Central Appalachian Dry Oak-Pine Forest,24000,Central Appalachian Dry Oak-Pine Forest,591,FALSE,TRUE
35,Northeastern Upland Forest,Central Oak-Pine,2008,Central Appalachian Pine-Oak Rocky Woodland,25000,Central Appalachian Pine-Oak Rocky Woodland,600,FALSE,TRUE
36,Northeastern Upland Forest,Central Oak-Pine,2008,Eastern Serpentine Woodland,33000,Eastern Serpentine Woodland,347,FALSE,TRUE
37,Northeastern Upland Forest,Central Oak-Pine,2008,Glacial Marine & Lake Mesic Clayplain Forest,34000,Glacial Marine & Lake Mesic Clayplain Forest,998,FALSE,TRUE
38,Northeastern Upland Forest,Central Oak-Pine,2008,North Atlantic Coastal Plain Hardwood Forest,50000,North Atlantic Coastal Plain Hardwood Forest,475,FALSE,TRUE
39,Northeastern Upland Forest,Central Oak-Pine,2008,North Atlantic Coastal Plain Maritime Forest,53000,North Atlantic Coastal Plain Maritime Forest,302,FALSE,TRUE
40,Northeastern Upland Forest,Central Oak-Pine,2008,North Atlantic Coastal Plain Pitch Pine Barrens,54000,North Atlantic Coastal Plain Pitch Pine Barrens,269,FALSE,TRUE
41,Northeastern Upland Forest,Central Oak-Pine,2008,Northeastern Interior Dry-Mesic Oak Forest,68000,Northeastern Interior Dry-Mesic Oak Forest: moist-cool,5929,FALSE,TRUE
42,Northeastern Upland Forest,Central Oak-Pine,2008,Northeastern Interior Dry-Mesic Oak Forest,68000,Northeastern Interior Dry-Mesic Oak Forest: typic,5920,FALSE,TRUE
43,Northeastern Upland Forest,Central Oak-Pine,2008,Northeastern Interior Pine Barrens,61000,Northeastern Interior Pine Barrens,590,FALSE,TRUE
44,Northeastern Upland Forest,Central Oak-Pine,2008,Piedmont Hardpan Woodland and Forest,72000,Piedmont Hardpan Woodland and Forest,268,FALSE,TRUE
45,Northeastern Upland Forest,Central Oak-Pine,2008,Southern Appalachian Montane Pine Forest and Woodland,82000,Southern Appalachian Montane Pine Forest and Woodland,331,FALSE,TRUE
46,Northeastern Upland Forest,Central Oak-Pine,2008,Southern Appalachian Oak Forest,84000,Southern Appalachian Oak Forest: moist-cool,8869,FALSE,TRUE
47,Northeastern Upland Forest,Central Oak-Pine,2008,Southern Appalachian Oak Forest,84000,Southern Appalachian Oak Forest: typic,8860,FALSE,TRUE
48,Northeastern Upland Forest,Central Oak-Pine,2008,Southern Atlantic Coastal Plain Upland Longleaf Pine Woodland,85000,Southern Atlantic Coastal Plain Dry and Dry-Mesic Oak Forest / ACP Upland Longleaf Pine Woodland,241281,FALSE,TRUE
49,Northeastern Upland Forest,Central Oak-Pine,2008,Southern Piedmont Dry Oak-Pine Forest,88000,Southern Piedmont Dry Oak-Pine Forest,339,FALSE,TRUE
50,Northeastern Upland Forest,Central Oak-Pine,2008,Southern Ridge and Valley / Cumberland Dry Calcareous Forest,94000,Southern Ridge and Valley / Cumberland Dry Calcareous Forest,457,FALSE,TRUE
51,Northeastern Upland Forest,Northern Hardwood & Conifer,2007,Appalachian (Hemlock)-Northern Hardwood Forest,12000,Appalachian (Hemlock)-Northern Hardwood Forest: drier,5938,FALSE,TRUE
52,Northeastern Upland Forest,Northern Hardwood & Conifer,2007,Appalachian (Hemlock)-Northern Hardwood Forest,12000,Appalachian (Hemlock)-Northern Hardwood Forest: moist-cool,5939,FALSE,TRUE
53,Northeastern Upland Forest,Northern Hardwood & Conifer,2007,Appalachian (Hemlock)-Northern Hardwood Forest,12000,Appalachian (Hemlock)-Northern Hardwood Forest: typic,5930,FALSE,TRUE
54,Northeastern Upland Forest,Northern Hardwood & Conifer,2007,Laurentian-Acadian Northern Hardwood Forest,42000,Laurentian-Acadian Northern Hardwood Forest: high conifer,5642,FALSE,TRUE
55,Northeastern Upland Forest,Northern Hardwood & Conifer,2007,Laurentian-Acadian Northern Hardwood Forest,42000,Laurentian-Acadian Northern Hardwood Forest: typic,5640,FALSE,TRUE
56,Northeastern Upland Forest,Northern Hardwood & Conifer,2007,Laurentian-Acadian Northern Hardwood Forest,42000,Laurentian-Acadian Northern Hardwoods Forest: moist-cool,5649,FALSE,TRUE
57,Northeastern Upland Forest,Northern Hardwood & Conifer,2007,Laurentian-Acadian Northern Pine-(Oak) Forest,43000,Laurentian-Acadian Northern Pine-(Oak) Forest,719,FALSE,TRUE
58,Northeastern Upland Forest,Northern Hardwood & Conifer,2007,Laurentian-Acadian Pine-Hemlock-Hardwood Forest,44000,Laurentian-Acadian Pine-Hemlock-Hardwood Forest: moist-cool,5639,FALSE,TRUE
59,Northeastern Upland Forest,Northern Hardwood & Conifer,2007,Laurentian-Acadian Pine-Hemlock-Hardwood Forest,44000,Laurentian-Acadian Pine-Hemlock-Hardwood Forest: typic,5630,FALSE,TRUE
60,Northeastern Upland Forest,Northern Hardwood & Conifer,2007,Laurentian-Acadian Red Oak-Northern Hardwood Forest,45000,Laurentian-Acadian Red Oak-Northern Hardwood Forest,5644,FALSE,TRUE
61,Northeastern Upland Forest,Northern Hardwood & Conifer,2007,North-Central Interior Beech-Maple Forest,62000,North-Central Interior Beech-Maple Forest,693,FALSE,TRUE
62,Northeastern Upland Forest,Northern Hardwood & Conifer,2007,Northeastern Coastal and Interior Pine-Oak Forest,67000,Northeastern Coastal and Interior Pine-Oak Forest,999,FALSE,TRUE
63,Northeastern Upland Forest,Northern Hardwood & Conifer,2007,South-Central Interior Mesophytic Forest,80000,South-Central Interior Mesophytic Forest,887,FALSE,TRUE
64,Northeastern Upland Forest,Northern Hardwood & Conifer,2007,Southern and Central Appalachian Cove Forest,96000,Southern and Central Appalachian Cove Forest-- acidic,3731,FALSE,TRUE
65,Northeastern Upland Forest,Northern Hardwood & Conifer,2007,Southern and Central Appalachian Cove Forest,96000,Southern and Central Appalachian Cove Forest-- calcareous,3733,FALSE,TRUE
66,Northeastern Upland Forest,Northern Hardwood & Conifer,2007,Southern and Central Appalachian Cove Forest,96000,Southern and Central Appalachian Cove Forest-- circumneutral,3732,FALSE,TRUE
67,Northeastern Upland Forest,Northern Hardwood & Conifer,2007,Southern Appalachian Northern Hardwood Forest,83000,Southern Appalachian Northern Hardwood Forest,29,FALSE,TRUE
68,Northeastern Upland Forest,Northern Hardwood & Conifer,2007,Southern Atlantic Coastal Plain Mesic Hardwood Forest,86000,Southern Atlantic Coastal Plain Mesic Hardwood Forest,242,FALSE,TRUE
69,Northeastern Upland Forest,Northern Hardwood & Conifer,2007,Southern Piedmont Mesic Forest,92000,Southern Piedmont Mesic Forest,342,FALSE,TRUE
70,Northeastern Upland Forest,Pine plantation / Horticultural pines,9999,Pine plantation / Horticultural pines,77000,Pine plantation / Horticultural pines,9999,FALSE,FALSE
71,Northeastern Upland Forest,Southern Oak-Pine,2009,Central Atlantic Coastal Plain Maritime Forest,27000,Central Atlantic Coastal Plain Maritime Forest,261,FALSE,TRUE
72,Northeastern Upland Forest,Southern Oak-Pine,2009,Southern Appalachian Low Elevation Pine Forest,81000,Southern Appalachian Low Elevation Pine Forest,332,FALSE,TRUE
73,Northeastern Wetland Forest,Central Hardwood Swamp,2011,Central Interior Highlands and Appalachian Sinkhole and Depression Pond,28000,Central Interior Highlands and Appalachian Sinkhole and Depression Pond Isolated,18,FALSE,TRUE
74,Northeastern Wetland Forest,Central Hardwood Swamp,2011,Glacial Marine & Lake Wet Clayplain Forest,35000,Glacial Marine & Lake Wet Clayplain Forest Undifferentiated,997,FALSE,TRUE
75,Northeastern Wetland Forest,Central Hardwood Swamp,2011,North-Central Interior Wet Flatwoods,64000,North-Central Interior Wet Flatwoods Undifferentiated,700,FALSE,TRUE
76,Northeastern Wetland Forest,Central Hardwood Swamp,2011,Piedmont Upland Depression Swamp,73000,Piedmont Upland Depression Swamp-- bedrock not mafic Isolated,335,FALSE,TRUE
77,Northeastern Wetland Forest,Central Hardwood Swamp,2011,Piedmont Upland Depression Swamp,73000,Piedmont Upland Depression Swamp-- mafic bedrock Isolated,336,FALSE,TRUE
78,Northeastern Wetland Forest,Coastal Plain Peat Swamp,2013,North Atlantic Coastal Plain Basin Peat Swamp,47000,North Atlantic Coastal Plain Basin Peat Swamp Isolated/headwater streams,5220,FALSE,TRUE
79,Northeastern Wetland Forest,Coastal Plain Peat Swamp,2013,North Atlantic Coastal Plain Basin Peat Swamp,47000,North Atlantic Coastal Plain Basin Peat Swamp Lake/pond: any size,5222,FALSE,TRUE
80,Northeastern Wetland Forest,Coastal Plain Peat Swamp,2013,North Atlantic Coastal Plain Basin Peat Swamp,47000,North Atlantic Coastal Plain Basin Peat Swamp Larger river floodplain,5229,FALSE,TRUE
81,Northeastern Wetland Forest,Coastal Plain Peat Swamp,2013,North Atlantic Coastal Plain Basin Peat Swamp,47000,North Atlantic Coastal Plain Basin Peat Swamp Smaller river riparian,5227,FALSE,TRUE
82,Northeastern Wetland Forest,Coastal Plain Swamp,2014,Central Atlantic Coastal Plain Non-riverine Swamp and Wet Hardwood Forest,79000,Central Atlantic Coastal Plain Non-riverine Swamp and Wet Hardwood Forest-- conifer-dominated Isolated,3042,FALSE,TRUE
83,Northeastern Wetland Forest,Coastal Plain Swamp,2014,Central Atlantic Coastal Plain Non-riverine Swamp and Wet Hardwood Forest,79000,Central Atlantic Coastal Plain Non-riverine Swamp and Wet Hardwood Forest-- oak-dominated Isolated,3041,FALSE,TRUE
84,Northeastern Wetland Forest,Coastal Plain Swamp,2014,North Atlantic Coastal Plain Basin Swamp and Wet Hardwood Forest,48000,North Atlantic Coastal Plain Basin Swamp and Wet Hardwood Forest Isolated,5200,FALSE,TRUE
85,Northeastern Wetland Forest,Coastal Plain Swamp,2014,North Atlantic Coastal Plain Basin Swamp and Wet Hardwood Forest,48000,North Atlantic Coastal Plain Basin Swamp and Wet Hardwood Forest Lake/pond: any size,5202,FALSE,TRUE
86,Northeastern Wetland Forest,Coastal Plain Swamp,2014,North Atlantic Coastal Plain Basin Swamp and Wet Hardwood Forest,48000,North Atlantic Coastal Plain Basin Swamp and Wet Hardwood Forest Larger river floodplain,5209,FALSE,TRUE
87,Northeastern Wetland Forest,Coastal Plain Swamp,2014,North Atlantic Coastal Plain Basin Swamp and Wet Hardwood Forest,48000,North Atlantic Coastal Plain Basin Swamp and Wet Hardwood Forest Smaller river riparian,5207,FALSE,TRUE
88,Northeastern Wetland Forest,Coastal Plain Swamp,2014,North Atlantic Coastal Plain Pitch Pine Lowland,55000,North Atlantic Coastal Plain Pitch Pine Lowland Isolated,3740,FALSE,TRUE
89,Northeastern Wetland Forest,Coastal Plain Swamp,2014,North Atlantic Coastal Plain Pitch Pine Lowland,55000,North Atlantic Coastal Plain Pitch Pine Lowland Lake/pond: any size,3742,FALSE,TRUE
90,Northeastern Wetland Forest,Coastal Plain Swamp,2014,North Atlantic Coastal Plain Pitch Pine Lowland,55000,North Atlantic Coastal Plain Pitch Pine Lowland Larger river floodplain,3749,FALSE,TRUE
91,Northeastern Wetland Forest,Coastal Plain Swamp,2014,North Atlantic Coastal Plain Pitch Pine Lowland,55000,North Atlantic Coastal Plain Pitch Pine Lowland Smaller river riparian,3747,FALSE,TRUE
92,Northeastern Wetland Forest,Northeastern Floodplain Forest,2015,Central Appalachian Stream and Riparian,26000,Central Appalachian Stream and Riparian Smaller river floodplain,609,FALSE,TRUE
93,Northeastern Wetland Forest,Northeastern Floodplain Forest,2015,Laurentian-Acadian Large River Floodplain Forest,70500,Eastern Boreal Floodplain Larger river floodplain,588,FALSE,TRUE
94,Northeastern Wetland Forest,Northeastern Floodplain Forest,2015,Laurentian-Acadian Large River Floodplain Forest,70500,Laurentian-Acadian Floodplain Forest Larger river floodplain,587,FALSE,TRUE
95,Northeastern Wetland Forest,Northeastern Floodplain Forest,2015,North Atlantic Coastal Plain Stream and River,56000,North Atlantic Coastal Plain Stream and River Smaller river floodplain,70,FALSE,TRUE
96,Northeastern Wetland Forest,Northeastern Floodplain Forest,2015,Piedmont-Coastal Plain Large River Floodplain Forest,75500,Piedmont-Coastal Plain Large River Floodplain Larger river floodplain,608,FALSE,TRUE
97,Northeastern Wetland Forest,Northern Swamp,2010,High Allegheny Headwater Wetland,38000,High Allegheny Wetland Isolated/headwater streams,69,FALSE,TRUE
98,Northeastern Wetland Forest,Northern Swamp,2010,Laurentian-Acadian Alkaline Conifer-Hardwood Swamp,39000,Laurentian-Acadian Alkaline Conifer-Hardwood Swamp Isolated,5750,FALSE,TRUE
99,Northeastern Wetland Forest,Northern Swamp,2010,Laurentian-Acadian Alkaline Conifer-Hardwood Swamp,39000,Laurentian-Acadian Alkaline Conifer-Hardwood Swamp Lake/pond: any size,5752,FALSE,TRUE
100,Northeastern Wetland Forest,Northern Swamp,2010,Laurentian-Acadian Large River Floodplain Forest,70500,Laurentian-Acadian Alkaline Conifer-Hardwood Swamp Larger river floodplain,105759,FALSE,TRUE
101,Northeastern Wetland Forest,Northern Swamp,2010,Laurentian-Acadian Alkaline Conifer-Hardwood Swamp,39000,Laurentian-Acadian Alkaline Conifer-Hardwood Swamp Smaller river floodplain,5758,FALSE,TRUE
102,Northeastern Wetland Forest,Northern Swamp,2010,Laurentian-Acadian Alkaline Conifer-Hardwood Swamp,39000,Laurentian-Acadian Alkaline Conifer-Hardwood Swamp Smaller river riparian,5757,FALSE,TRUE
103,Northeastern Wetland Forest,Northern Swamp,2010,North-Central Appalachian Acidic Swamp,59000,North-Central Appalachian Acidic Swamp Great Lakes,6045,FALSE,TRUE
104,Northeastern Wetland Forest,Northern Swamp,2010,North-Central Appalachian Acidic Swamp,59000,North-Central Appalachian Acidic Swamp Isolated,6040,FALSE,TRUE
105,Northeastern Wetland Forest,Northern Swamp,2010,North-Central Appalachian Acidic Swamp,59000,North-Central Appalachian Acidic Swamp Lake/pond: any size,6042,FALSE,TRUE
106,Northeastern Wetland Forest,Northern Swamp,2010,Laurentian-Acadian Large River Floodplain Forest,70500,North-Central Appalachian Acidic Swamp Larger river floodplain,106049,FALSE,TRUE
107,Northeastern Wetland Forest,Northern Swamp,2010,North-Central Appalachian Acidic Swamp,59000,North-Central Appalachian Acidic Swamp Smaller river floodplain,6048,FALSE,TRUE
108,Northeastern Wetland Forest,Northern Swamp,2010,North-Central Appalachian Acidic Swamp,59000,North-Central Appalachian Acidic Swamp Smaller river riparian,6047,FALSE,TRUE
109,Northeastern Wetland Forest,Northern Swamp,2010,North-Central Interior and Appalachian Rich Swamp,66000,North-Central Interior and Appalachian Rich Swamp Great Lakes,6055,FALSE,TRUE
110,Northeastern Wetland Forest,Northern Swamp,2010,North-Central Interior and Appalachian Rich Swamp,66000,North-Central Interior and Appalachian Rich Swamp Isolated,6050,FALSE,TRUE
111,Northeastern Wetland Forest,Northern Swamp,2010,North-Central Interior and Appalachian Rich Swamp,66000,North-Central Interior and Appalachian Rich Swamp Lake/pond: any size,6052,FALSE,TRUE
112,Northeastern Wetland Forest,Northern Swamp,2010,North-Central Appalachian Large River Floodplain,60000,North-Central Interior and Appalachian Rich Swamp Larger river floodplain,6059,FALSE,TRUE
113,Northeastern Wetland Forest,Northern Swamp,2010,North-Central Interior and Appalachian Rich Swamp,66000,North-Central Interior and Appalachian Rich Swamp Smaller river floodplain,6058,FALSE,TRUE
114,Northeastern Wetland Forest,Northern Swamp,2010,North-Central Interior and Appalachian Rich Swamp,66000,North-Central Interior and Appalachian Rich Swamp Smaller river riparian,6057,FALSE,TRUE
115,Northeastern Wetland Forest,Northern Swamp,2010,Northern Appalachian-Acadian Conifer-Hardwood Acidic Swamp,69000,Northern Appalachian-Acadian Conifer-Hardwood Acidic Swamp Isolated,5740,FALSE,TRUE
116,Northeastern Wetland Forest,Northern Swamp,2010,Northern Appalachian-Acadian Conifer-Hardwood Acidic Swamp,69000,Northern Appalachian-Acadian Conifer-Hardwood Acidic Swamp Lake/pond: any size,5742,FALSE,TRUE
117,Northeastern Wetland Forest,Northern Swamp,2010,Laurentian-Acadian Large River Floodplain Forest,70500,Northern Appalachian-Acadian Conifer-Hardwood Acidic Swamp Larger river floodplain,105749,FALSE,TRUE
118,Northeastern Wetland Forest,Northern Swamp,2010,Northern Appalachian-Acadian Conifer-Hardwood Acidic Swamp,69000,Northern Appalachian-Acadian Conifer-Hardwood Acidic Swamp Smaller river riparian,5747,FALSE,TRUE
119,Northeastern Wetland Forest,Southern Bottomland Forest,2012,Atlantic Coastal Plain Blackwater/Brownwater Stream Floodplain Forest,15000,Atlantic Coastal Plain Blackwater/Brownwater Stream Floodplain Forest Smaller river floodplain,247248,FALSE,TRUE
120,Northeastern Wetland Forest,Southern Bottomland Forest,2012,Piedmont-Coastal Plain Large River Floodplain Forest,75500,Atlantic Coastal Plain Small Brownwater River Floodplain Forest Larger river floodplain,250,FALSE,TRUE
121,Northeastern Wetland Forest,Southern Bottomland Forest,2012,Southern Piedmont Lake Floodplain Forest,91000,Southern Piedmont Lake Floodplain Forest Lake/pond: any size,325,FALSE,TRUE
122,Northeastern Wetland Forest,Southern Bottomland Forest,2012,Southern Piedmont Small Floodplain and Riparian Forest,93000,Southern Piedmont Small Floodplain and Riparian Forest Smaller river floodplain,323,FALSE,TRUE
123,Northeastern Wetland Forest,Tidal Swamp,2016,North Atlantic Coastal Plain Tidal Swamp,58000,North Atlantic Coastal Plain Tidal Swamp Tidal,282,FALSE,TRUE
124,Northeastern Wetland Forest,Tidal Swamp,2016,Southern Atlantic Coastal Plain Tidal Wooded Swamp,87000,Southern Atlantic Coastal Plain Tidal Wooded Swamp Tidal,240,FALSE,TRUE
125,Freshwater Marsh,Emergent Marsh,2017,Laurentian-Acadian Freshwater Marsh,41000,Laurentian-Acadian Freshwater Marsh Great Lakes,5945,FALSE,FALSE
126,Freshwater Marsh,Emergent Marsh,2017,Laurentian-Acadian Freshwater Marsh,41000,Laurentian-Acadian Freshwater Marsh Isolated,5940,FALSE,FALSE
127,Freshwater Marsh,Emergent Marsh,2017,Laurentian-Acadian Freshwater Marsh,41000,Laurentian-Acadian Freshwater Marsh Lake/pond: any size,5942,FALSE,FALSE
128,Freshwater Marsh,Emergent Marsh,2017,Laurentian-Acadian Large River Floodplain,70000,Laurentian-Acadian Freshwater Marsh Larger river floodplain,105949,FALSE,FALSE
129,Freshwater Marsh,Emergent Marsh,2017,Laurentian-Acadian Freshwater Marsh,41000,Laurentian-Acadian Freshwater Marsh Smaller river floodplain,5948,FALSE,FALSE
130,Freshwater Marsh,Emergent Marsh,2017,Laurentian-Acadian Freshwater Marsh,41000,Laurentian-Acadian Freshwater Marsh Smaller river riparian,5947,FALSE,FALSE
131,Freshwater Marsh,Emergent Marsh,2017,Piedmont-Coastal Plain Freshwater Marsh,74000,Piedmont-Coastal Plain Freshwater Marsh Isolated,5950,FALSE,FALSE
132,Freshwater Marsh,Emergent Marsh,2017,Piedmont-Coastal Plain Freshwater Marsh,74000,Piedmont-Coastal Plain Freshwater Marsh Lake/pond: any size,5952,FALSE,FALSE
133,Freshwater Marsh,Emergent Marsh,2017,Piedmont-Coastal Plain Large River Floodplain,75000,Piedmont-Coastal Plain Freshwater Marsh Larger river floodplain,5959,FALSE,FALSE
134,Freshwater Marsh,Emergent Marsh,2017,Piedmont-Coastal Plain Freshwater Marsh,74000,Piedmont-Coastal Plain Freshwater Marsh Smaller river floodplain,5958,FALSE,FALSE
135,Freshwater Marsh,Ruderal Shrub Swamp,5272,Ruderal Shrub Swamp,5272,Ruderal Shrub Swamp,5272,FALSE,FALSE
136,Freshwater Marsh,Wet Meadow / Shrub Marsh,2018,Laurentian-Acadian Wet Meadow-Shrub Swamp,46000,Laurentian-Acadian Wet Meadow-Shrub Swamp Great Lakes,5825,FALSE,FALSE
137,Freshwater Marsh,Wet Meadow / Shrub Marsh,2018,Laurentian-Acadian Wet Meadow-Shrub Swamp,46000,Laurentian-Acadian Wet Meadow-Shrub Swamp Isolated,5820,FALSE,FALSE
138,Freshwater Marsh,Wet Meadow / Shrub Marsh,2018,Laurentian-Acadian Wet Meadow-Shrub Swamp,46000,Laurentian-Acadian Wet Meadow-Shrub Swamp Lake/pond: any size,5822,FALSE,FALSE
139,Freshwater Marsh,Wet Meadow / Shrub Marsh,2018,Laurentian-Acadian Large River Floodplain,70000,Laurentian-Acadian Wet Meadow-Shrub Swamp Larger river floodplain,105829,FALSE,FALSE
140,Freshwater Marsh,Wet Meadow / Shrub Marsh,2018,Laurentian-Acadian Wet Meadow-Shrub Swamp,46000,Laurentian-Acadian Wet Meadow-Shrub Swamp Smaller river floodplain,5828,FALSE,FALSE
141,Freshwater Marsh,Wet Meadow / Shrub Marsh,2018,Laurentian-Acadian Wet Meadow-Shrub Swamp,46000,Laurentian-Acadian Wet Meadow-Shrub Swamp Smaller river riparian,5827,FALSE,FALSE
142,Freshwater Marsh,Wet Meadow / Shrub Marsh,2018,Piedmont-Coastal Plain Shrub Swamp,76000,Piedmont-Coastal Plain Shrub Swamp Isolated,5770,FALSE,FALSE
143,Freshwater Marsh,Wet Meadow / Shrub Marsh,2018,Piedmont-Coastal Plain Shrub Swamp,76000,Piedmont-Coastal Plain Shrub Swamp Lake/pond: any size,5772,FALSE,FALSE
144,Freshwater Marsh,Wet Meadow / Shrub Marsh,2018,Piedmont-Coastal Plain Large River Floodplain,75000,Piedmont-Coastal Plain Shrub Swamp Larger river floodplain,5779,FALSE,FALSE
145,Freshwater Marsh,Wet Meadow / Shrub Marsh,2018,Piedmont-Coastal Plain Shrub Swamp,76000,Piedmont-Coastal Plain Shrub Swamp Smaller river floodplain,5778,FALSE,FALSE
146,Peatland,Coastal Plain Peatland,2020,Atlantic Coastal Plain Northern Bog,17000,Atlantic Coastal Plain Northern Bog Isolated,8930,FALSE,FALSE
147,Peatland,Coastal Plain Peatland,2020,Atlantic Coastal Plain Northern Bog,17000,Atlantic Coastal Plain Northern Bog Lake/pond: any size,8932,FALSE,FALSE
148,Peatland,Coastal Plain Peatland,2020,Atlantic Coastal Plain Northern Bog,17000,Atlantic Coastal Plain Northern Bog Larger river floodplain,8939,FALSE,FALSE
149,Peatland,Coastal Plain Peatland,2020,Atlantic Coastal Plain Northern Bog,17000,Atlantic Coastal Plain Northern Bog Smaller river riparian,8937,FALSE,FALSE
150,Peatland,Coastal Plain Peatland,2020,Atlantic Coastal Plain Peatland Pocosin and Canebrake,18000,Atlantic Coastal Plain Peatland Pocosin and Canebrake Isolated,267,FALSE,FALSE
151,Peatland,Northern Peatland & Fens,2019,Acadian Maritime Bog,3000,Acadian Maritime Bog Isolated,580,FALSE,FALSE
152,Peatland,Northern Peatland & Fens,2019,Boreal-Laurentian Bog,19000,Boreal-Laurentian Bog Isolated,581,FALSE,FALSE
153,Peatland,Northern Peatland & Fens,2019,Boreal-Laurentian-Acadian Acidic Basin Fen,20000,Boreal-Laurentian-Acadian Acidic Basin Fen Undifferentiated,583,FALSE,FALSE
154,Peatland,Northern Peatland & Fens,2019,Laurentian-Acadian Alkaline Fen,40000,Laurentian-Acadian Alkaline Fen Isolated/headwater streams,585,FALSE,FALSE
155,Peatland,Northern Peatland & Fens,2019,North-Central Interior and Appalachian Acidic Peatland,65000,North-Central Interior and Appalachian Acidic Peatland Isolated/headwater streams,6060,FALSE,FALSE
156,Peatland,Northern Peatland & Fens,2019,North-Central Interior and Appalachian Acidic Peatland,65000,North-Central Interior and Appalachian Acidic Peatland Lake/pond: any size,6062,FALSE,FALSE
157,Peatland,Northern Peatland & Fens,2019,North-Central Interior and Appalachian Acidic Peatland,65000,North-Central Interior and Appalachian Acidic Peatland Smaller river floodplain,6068,FALSE,FALSE
158,Peatland,Northern Peatland & Fens,2019,North-Central Interior and Appalachian Acidic Peatland,65000,North-Central Interior and Appalachian Acidic Peatland Smaller river riparian,6067,FALSE,FALSE
159,Peatland,Northern Peatland & Fens,2019,North-Central Interior and Appalachian Acidic Peatland,65000,North-Central Interior and Appalachian Acidic Peatland Undifferentiated,6061,FALSE,FALSE
160,Lentic,Lentic,200,Lentic,200,Lentic,200,FALSE,FALSE
161,Great Lakes,Great Lakes,201,Great Lakes,201,Great Lakes,201,TRUE,FALSE
162,Lake,Lake,202,Lake,202,Lake,202,FALSE,FALSE
163,Pond,Pond,203,Pond,203,Pond,203,FALSE,FALSE
164,Lotic,Lotic,100,Lotic,100,Lotic,100,FALSE,FALSE
165,Stream (headwater/creek),Stream (headwater/creek) cold high,1113,Stream (headwater/creek) cold high,1113,Stream (headwater/creek) cold high,1113,FALSE,FALSE
166,Stream (headwater/creek),Stream (headwater/creek) cold moderate,1112,Stream (headwater/creek) cold moderate,1112,Stream (headwater/creek) cold moderate,1112,FALSE,FALSE
167,Stream (headwater/creek),Stream (headwater/creek) cold low,1111,Stream (headwater/creek) cold low,1111,Stream (headwater/creek) cold low,1111,FALSE,FALSE
168,Stream (headwater/creek),Stream (headwater/creek) cool high,1123,Stream (headwater/creek) cool high,1123,Stream (headwater/creek) cool high,1123,FALSE,FALSE
169,Stream (headwater/creek),Stream (headwater/creek) cool moderate,1122,Stream (headwater/creek) cool moderate,1122,Stream (headwater/creek) cool moderate,1122,FALSE,FALSE
170,Stream (headwater/creek),Stream (headwater/creek) cool low,1121,Stream (headwater/creek) cool low,1121,Stream (headwater/creek) cool low,1121,FALSE,FALSE
171,Stream (headwater/creek),Stream (headwater/creek) warm high,1133,Stream (headwater/creek) warm high,1133,Stream (headwater/creek) warm high,1133,FALSE,FALSE
172,Stream (headwater/creek),Stream (headwater/creek) warm moderate,1132,Stream (headwater/creek) warm moderate,1132,Stream (headwater/creek) warm moderate,1132,FALSE,FALSE
173,Stream (headwater/creek),Stream (headwater/creek) warm low,1131,Stream (headwater/creek) warm low,1131,Stream (headwater/creek) warm low,1131,FALSE,FALSE
174,Stream (small),Stream (small) cold moderate,1212,Stream (small) cold moderate,1212,Stream (small) cold moderate,1212,FALSE,FALSE
175,Stream (small),Stream (small) cold low,1211,Stream (small) cold low,1211,Stream (small) cold low,1211,FALSE,FALSE
176,Stream (small),Stream (small) cool moderate,1222,Stream (small) cool moderate,1222,Stream (small) cool moderate,1222,FALSE,FALSE
177,Stream (small),Stream (small) cool low,1221,Stream (small) cool low,1221,Stream (small) cool low,1221,FALSE,FALSE
178,Stream (small),Stream (small) warm moderate,1232,Stream (small) warm moderate,1232,Stream (small) warm moderate,1232,FALSE,FALSE
179,Stream (small),Stream (small) warm low,1231,Stream (small) warm low,1231,Stream (small) warm low,1231,FALSE,FALSE
180,Stream (medium),Stream (medium) cold,1319,Stream (medium) cold,1319,Stream (medium) cold,1319,FALSE,FALSE
181,Stream (medium),Stream (medium) cool,1329,Stream (medium) cool,1329,Stream (medium) cool,1329,FALSE,FALSE
182,Stream (medium),Stream (medium) warm,1339,Stream (medium) warm,1339,Stream (medium) warm,1339,FALSE,FALSE
183,Stream (large),Stream (large) cool,1429,Stream (large) cool,1429,Stream (large) cool,1429,FALSE,FALSE
184,Stream (large),Stream (large) warm,1439,Stream (large) warm,1439,Stream (large) warm,1439,FALSE,FALSE
185,Freshwater Tidal Riverine,FreshwaterTidal Riverine,300,Freshwater Tidal Riverine,300,Freshwater Tidal Riverine,300,FALSE,FALSE
186,Estuarine Intertidal,Estuarine Intertidal Aquatic Bed,404,Estuarine Intertidal Aquatic Bed,404,Estuarine Intertidal Aquatic Bed,404,FALSE,FALSE
187,Estuarine Intertidal,Estuarine Intertidal Emergent,409,Estuarine Intertidal Emergent,409,Estuarine Intertidal Emergent,409,FALSE,FALSE
188,Estuarine Intertidal,Estuarine Intertidal Forested,411,Estuarine Intertidal Forested,411,Estuarine Intertidal Forested,411,FALSE,TRUE
189,Estuarine Intertidal,Estuarine Intertidal Reef,405,Estuarine Intertidal Reef,405,Estuarine Intertidal Reef,405,FALSE,FALSE
190,Estuarine Intertidal,Estuarine Intertidal Rocky Shore,407,Estuarine Intertidal Rocky Shore,407,Estuarine Intertidal Rocky Shore,407,FALSE,FALSE
191,Estuarine Intertidal,Estuarine Intertidal Scrub Shrub,410,Estuarine Intertidal Scrub Shrub,410,Estuarine Intertidal Scrub Shrub,410,FALSE,FALSE
192,Estuarine Intertidal,Estuarine Intertidal Streambed,406,Estuarine Intertidal Streambed,406,Estuarine Intertidal Streambed,406,FALSE,FALSE
193,Estuarine Intertidal,Estuarine Intertidal Unconsolidated Shore,408,Estuarine Intertidal Unconsolidated Shore,408,Estuarine Intertidal Unconsolidated Shore,408,FALSE,FALSE
194,Estuarine Subtidal,Estuarine Subtidal Aquatic Bed,402,Estuarine Subtidal Aquatic Bed,402,Estuarine Subtidal Aquatic Bed,402,TRUE,FALSE
195,Estuarine Subtidal,Estuarine Subtidal Rock Bottom,401,Estuarine Subtidal Rock Bottom,401,Estuarine Subtidal Rock Bottom,401,TRUE,FALSE
196,Estuarine Subtidal,Estuarine Subtidal Unconsolidated Bottom,400,Estuarine Subtidal Unconsolidated Bottom,400,Estuarine Subtidal Unconsolidated Bottom,400,TRUE,FALSE
197,Marine Intertidal,Marine Intertidal Aquatic Bed,504,Marine Intertidal Aquatic Bed,504,Marine Intertidal Aquatic Bed,504,FALSE,FALSE
198,Marine Intertidal,Marine Intertidal Reef,505,Marine Intertidal Reef,505,Marine Intertidal Reef,505,FALSE,FALSE
199,Marine Intertidal,Marine Intertidal Rocky Shore,506,Marine Intertidal Rocky Shore,506,Marine Intertidal Rocky Shore,506,FALSE,FALSE
200,Marine Intertidal,Marine Intertidal Unconsolidated Shore,507,Marine Intertidal Unconsolidated Shore,507,Marine Intertidal Unconsolidated Shore,507,FALSE,FALSE
201,Marine Subtidal,Marine Subtidal Aquatic Bed,502,Marine Subtidal Aquatic Bed,502,Marine Subtidal Aquatic Bed,502,TRUE,FALSE
202,Marine Subtidal,Marine Subtidal Unconsolidated Bottom,500,Marine Subtidal Unconsolidated Bottom,500,Marine Subtidal Unconsolidated Bottom,500,TRUE,FALSE
203,Agricultural,Cultivated crops,82,Cultivated crops,82,Cultivated crops,82,TRUE,FALSE
204,Agricultural,Pasture/hay,81,Pasture/hay,81,Pasture/hay,81,TRUE,FALSE
205,Developed,Abandoned train,8,Abandoned train,8,Abandoned train,8,TRUE,FALSE
206,Developed,Active train,7,Active train,7,Active train,7,TRUE,FALSE
207,Developed,Barren land,31,Barren land,31,Barren land,31,TRUE,FALSE
208,Developed,Culvert/bridge,102,Culvert/bridge,102,Culvert/bridge,102,FALSE,FALSE
209,Developed,Dam,101,Dam,101,Dam,101,FALSE,FALSE
210,Developed,Developed- high intensity,24,Developed- high intensity,24,Developed- high intensity,24,TRUE,FALSE
211,Developed,Developed- medium intensity,23,Developed- medium intensity,23,Developed- medium intensity,23,TRUE,FALSE
212,Developed,Developed- low intensity,22,Developed- low intensity,22,Developed- low intensity,22,TRUE,FALSE
213,Developed,Developed- open space,21,Developed- open space,21,Developed- open space,21,TRUE,FALSE
214,Developed,Motorway,1,Motorway,1,Motorway,TRUE,TRUE,FALSE
215,Developed,Primary road,2,Primary road,2,Primary road,2,TRUE,FALSE
216,Developed,Secondary road,3,Secondary road,3,Secondary road,3,TRUE,FALSE
217,Developed,Tertiary road,4,Tertiary road,4,Tertiary road,4,TRUE,FALSE
218,Developed,Local road,5,Local road,5,Local road,5,TRUE,FALSE
219,Developed,Track,6,Track,6,Track,6,TRUE,FALSE
